C:\Users\tudor\OneDrive\Documents\DatingApp.API\DatingApp-SPA\dist\out-tsc\e2e\src\app.po.js
C:\Users\tudor\OneDrive\Documents\DatingApp.API\DatingApp-SPA\dist\out-tsc\e2e\src\app.po.js.map
C:\Users\tudor\OneDrive\Documents\DatingApp.API\DatingApp-SPA\dist\out-tsc\e2e\src\app.e2e-spec.js
C:\Users\tudor\OneDrive\Documents\DatingApp.API\DatingApp-SPA\dist\out-tsc\e2e\src\app.e2e-spec.js.map
C:\Users\tudor\OneDrive\Documents\DatingApp.API\DatingApp-SPA\dist\out-tsc\src\app\_models\photo.js
C:\Users\tudor\OneDrive\Documents\DatingApp.API\DatingApp-SPA\dist\out-tsc\src\app\_models\photo.js.map
C:\Users\tudor\OneDrive\Documents\DatingApp.API\DatingApp-SPA\dist\out-tsc\src\app\_models\user.js
C:\Users\tudor\OneDrive\Documents\DatingApp.API\DatingApp-SPA\dist\out-tsc\src\app\_models\user.js.map
C:\Users\tudor\OneDrive\Documents\DatingApp.API\DatingApp-SPA\dist\out-tsc\src\environments\environment.js
C:\Users\tudor\OneDrive\Documents\DatingApp.API\DatingApp-SPA\dist\out-tsc\src\environments\environment.js.map
C:\Users\tudor\OneDrive\Documents\DatingApp.API\DatingApp-SPA\dist\out-tsc\src\app\_services\auth.service.js
C:\Users\tudor\OneDrive\Documents\DatingApp.API\DatingApp-SPA\dist\out-tsc\src\app\_services\auth.service.js.map
C:\Users\tudor\OneDrive\Documents\DatingApp.API\DatingApp-SPA\dist\out-tsc\src\app\app.component.js
C:\Users\tudor\OneDrive\Documents\DatingApp.API\DatingApp-SPA\dist\out-tsc\src\app\app.component.js.map
C:\Users\tudor\OneDrive\Documents\DatingApp.API\DatingApp-SPA\dist\out-tsc\src\app\_services\alertify.service.js
C:\Users\tudor\OneDrive\Documents\DatingApp.API\DatingApp-SPA\dist\out-tsc\src\app\_services\alertify.service.js.map
C:\Users\tudor\OneDrive\Documents\DatingApp.API\DatingApp-SPA\dist\out-tsc\src\app\nav\nav.component.js
C:\Users\tudor\OneDrive\Documents\DatingApp.API\DatingApp-SPA\dist\out-tsc\src\app\nav\nav.component.js.map
C:\Users\tudor\OneDrive\Documents\DatingApp.API\DatingApp-SPA\dist\out-tsc\src\app\_services\error.interceptor.js
C:\Users\tudor\OneDrive\Documents\DatingApp.API\DatingApp-SPA\dist\out-tsc\src\app\_services\error.interceptor.js.map
C:\Users\tudor\OneDrive\Documents\DatingApp.API\DatingApp-SPA\dist\out-tsc\src\app\home\home.component.js
C:\Users\tudor\OneDrive\Documents\DatingApp.API\DatingApp-SPA\dist\out-tsc\src\app\home\home.component.js.map
C:\Users\tudor\OneDrive\Documents\DatingApp.API\DatingApp-SPA\dist\out-tsc\src\app\register\register.component.js
C:\Users\tudor\OneDrive\Documents\DatingApp.API\DatingApp-SPA\dist\out-tsc\src\app\register\register.component.js.map
C:\Users\tudor\OneDrive\Documents\DatingApp.API\DatingApp-SPA\dist\out-tsc\src\app\lists\lists.component.js
C:\Users\tudor\OneDrive\Documents\DatingApp.API\DatingApp-SPA\dist\out-tsc\src\app\lists\lists.component.js.map
C:\Users\tudor\OneDrive\Documents\DatingApp.API\DatingApp-SPA\dist\out-tsc\src\app\_services\user.service.js
C:\Users\tudor\OneDrive\Documents\DatingApp.API\DatingApp-SPA\dist\out-tsc\src\app\_services\user.service.js.map
C:\Users\tudor\OneDrive\Documents\DatingApp.API\DatingApp-SPA\dist\out-tsc\src\app\members\member-list\member-list.component.js
C:\Users\tudor\OneDrive\Documents\DatingApp.API\DatingApp-SPA\dist\out-tsc\src\app\members\member-list\member-list.component.js.map
C:\Users\tudor\OneDrive\Documents\DatingApp.API\DatingApp-SPA\dist\out-tsc\src\app\members\member-card\member-card.component.js
C:\Users\tudor\OneDrive\Documents\DatingApp.API\DatingApp-SPA\dist\out-tsc\src\app\members\member-card\member-card.component.js.map
C:\Users\tudor\OneDrive\Documents\DatingApp.API\DatingApp-SPA\dist\out-tsc\src\app\members\member-detail\member-detail.component.js
C:\Users\tudor\OneDrive\Documents\DatingApp.API\DatingApp-SPA\dist\out-tsc\src\app\members\member-detail\member-detail.component.js.map
C:\Users\tudor\OneDrive\Documents\DatingApp.API\DatingApp-SPA\dist\out-tsc\src\app\members\member-edit\member-edit.component.js
C:\Users\tudor\OneDrive\Documents\DatingApp.API\DatingApp-SPA\dist\out-tsc\src\app\members\member-edit\member-edit.component.js.map
C:\Users\tudor\OneDrive\Documents\DatingApp.API\DatingApp-SPA\dist\out-tsc\src\app\members\photo-editor\photo-editor.component.js
C:\Users\tudor\OneDrive\Documents\DatingApp.API\DatingApp-SPA\dist\out-tsc\src\app\members\photo-editor\photo-editor.component.js.map
C:\Users\tudor\OneDrive\Documents\DatingApp.API\DatingApp-SPA\dist\out-tsc\src\app\messages\messages.component.js
C:\Users\tudor\OneDrive\Documents\DatingApp.API\DatingApp-SPA\dist\out-tsc\src\app\messages\messages.component.js.map
C:\Users\tudor\OneDrive\Documents\DatingApp.API\DatingApp-SPA\dist\out-tsc\src\app\_guards\auth.guard.js
C:\Users\tudor\OneDrive\Documents\DatingApp.API\DatingApp-SPA\dist\out-tsc\src\app\_guards\auth.guard.js.map
C:\Users\tudor\OneDrive\Documents\DatingApp.API\DatingApp-SPA\dist\out-tsc\src\app\_guards\prevent-unsaved-changes.guard.js
C:\Users\tudor\OneDrive\Documents\DatingApp.API\DatingApp-SPA\dist\out-tsc\src\app\_guards\prevent-unsaved-changes.guard.js.map
C:\Users\tudor\OneDrive\Documents\DatingApp.API\DatingApp-SPA\dist\out-tsc\src\app\_resolvers\member-detail.resolver.js
C:\Users\tudor\OneDrive\Documents\DatingApp.API\DatingApp-SPA\dist\out-tsc\src\app\_resolvers\member-detail.resolver.js.map
C:\Users\tudor\OneDrive\Documents\DatingApp.API\DatingApp-SPA\dist\out-tsc\src\app\_resolvers\member-edit.resolver.js
C:\Users\tudor\OneDrive\Documents\DatingApp.API\DatingApp-SPA\dist\out-tsc\src\app\_resolvers\member-edit.resolver.js.map
C:\Users\tudor\OneDrive\Documents\DatingApp.API\DatingApp-SPA\dist\out-tsc\src\app\_resolvers\member-list.resolver.js
C:\Users\tudor\OneDrive\Documents\DatingApp.API\DatingApp-SPA\dist\out-tsc\src\app\_resolvers\member-list.resolver.js.map
C:\Users\tudor\OneDrive\Documents\DatingApp.API\DatingApp-SPA\dist\out-tsc\src\app\routes.js
C:\Users\tudor\OneDrive\Documents\DatingApp.API\DatingApp-SPA\dist\out-tsc\src\app\routes.js.map
C:\Users\tudor\OneDrive\Documents\DatingApp.API\DatingApp-SPA\dist\out-tsc\src\app\app.module.js
C:\Users\tudor\OneDrive\Documents\DatingApp.API\DatingApp-SPA\dist\out-tsc\src\app\app.module.js.map
C:\Users\tudor\OneDrive\Documents\DatingApp.API\DatingApp-SPA\dist\out-tsc\src\main.js
C:\Users\tudor\OneDrive\Documents\DatingApp.API\DatingApp-SPA\dist\out-tsc\src\main.js.map
C:\Users\tudor\OneDrive\Documents\DatingApp.API\DatingApp-SPA\dist\out-tsc\src\polyfills.js
C:\Users\tudor\OneDrive\Documents\DatingApp.API\DatingApp-SPA\dist\out-tsc\src\polyfills.js.map
C:\Users\tudor\OneDrive\Documents\DatingApp.API\DatingApp-SPA\dist\out-tsc\src\test.js
C:\Users\tudor\OneDrive\Documents\DatingApp.API\DatingApp-SPA\dist\out-tsc\src\test.js.map
C:\Users\tudor\OneDrive\Documents\DatingApp.API\DatingApp-SPA\dist\out-tsc\src\app\app.component.spec.js
C:\Users\tudor\OneDrive\Documents\DatingApp.API\DatingApp-SPA\dist\out-tsc\src\app\app.component.spec.js.map
C:\Users\tudor\OneDrive\Documents\DatingApp.API\DatingApp-SPA\dist\out-tsc\src\app\home\home.component.spec.js
C:\Users\tudor\OneDrive\Documents\DatingApp.API\DatingApp-SPA\dist\out-tsc\src\app\home\home.component.spec.js.map
C:\Users\tudor\OneDrive\Documents\DatingApp.API\DatingApp-SPA\dist\out-tsc\src\app\lists\lists.component.spec.js
C:\Users\tudor\OneDrive\Documents\DatingApp.API\DatingApp-SPA\dist\out-tsc\src\app\lists\lists.component.spec.js.map
C:\Users\tudor\OneDrive\Documents\DatingApp.API\DatingApp-SPA\dist\out-tsc\src\app\members\member-card\member-card.component.spec.js
C:\Users\tudor\OneDrive\Documents\DatingApp.API\DatingApp-SPA\dist\out-tsc\src\app\members\member-card\member-card.component.spec.js.map
C:\Users\tudor\OneDrive\Documents\DatingApp.API\DatingApp-SPA\dist\out-tsc\src\app\members\member-detail\member-detail.component.spec.js
C:\Users\tudor\OneDrive\Documents\DatingApp.API\DatingApp-SPA\dist\out-tsc\src\app\members\member-detail\member-detail.component.spec.js.map
C:\Users\tudor\OneDrive\Documents\DatingApp.API\DatingApp-SPA\dist\out-tsc\src\app\members\member-edit\member-edit.component.spec.js
C:\Users\tudor\OneDrive\Documents\DatingApp.API\DatingApp-SPA\dist\out-tsc\src\app\members\member-edit\member-edit.component.spec.js.map
C:\Users\tudor\OneDrive\Documents\DatingApp.API\DatingApp-SPA\dist\out-tsc\src\app\members\member-list\member-list.component.spec.js
C:\Users\tudor\OneDrive\Documents\DatingApp.API\DatingApp-SPA\dist\out-tsc\src\app\members\member-list\member-list.component.spec.js.map
C:\Users\tudor\OneDrive\Documents\DatingApp.API\DatingApp-SPA\dist\out-tsc\src\app\members\photo-editor\photo-editor.component.spec.js
C:\Users\tudor\OneDrive\Documents\DatingApp.API\DatingApp-SPA\dist\out-tsc\src\app\members\photo-editor\photo-editor.component.spec.js.map
C:\Users\tudor\OneDrive\Documents\DatingApp.API\DatingApp-SPA\dist\out-tsc\src\app\messages\messages.component.spec.js
C:\Users\tudor\OneDrive\Documents\DatingApp.API\DatingApp-SPA\dist\out-tsc\src\app\messages\messages.component.spec.js.map
C:\Users\tudor\OneDrive\Documents\DatingApp.API\DatingApp-SPA\dist\out-tsc\src\app\nav\nav.component.spec.js
C:\Users\tudor\OneDrive\Documents\DatingApp.API\DatingApp-SPA\dist\out-tsc\src\app\nav\nav.component.spec.js.map
C:\Users\tudor\OneDrive\Documents\DatingApp.API\DatingApp-SPA\dist\out-tsc\src\app\register\register.component.spec.js
C:\Users\tudor\OneDrive\Documents\DatingApp.API\DatingApp-SPA\dist\out-tsc\src\app\register\register.component.spec.js.map
C:\Users\tudor\OneDrive\Documents\DatingApp.API\DatingApp-SPA\dist\out-tsc\src\environments\environment.prod.js
C:\Users\tudor\OneDrive\Documents\DatingApp.API\DatingApp-SPA\dist\out-tsc\src\environments\environment.prod.js.map
