C:\Users\tudor\OneDrive\Documents\DatingApp.API\DatingApp-SPA\out-tsc\e2e\app.po.js
C:\Users\tudor\OneDrive\Documents\DatingApp.API\DatingApp-SPA\out-tsc\e2e\app.po.js.map
C:\Users\tudor\OneDrive\Documents\DatingApp.API\DatingApp-SPA\out-tsc\e2e\app.e2e-spec.js
C:\Users\tudor\OneDrive\Documents\DatingApp.API\DatingApp-SPA\out-tsc\e2e\app.e2e-spec.js.map
